info face="Laconic-Light" size=20 bold=0 italic=0 charset="" unicode=0 stretchH=100 smooth=1 aa=1 padding=1,1,1,1 spacing=-2,-2
common lineHeight=20 base=15 scaleW=512 scaleH=512 pages=1 packed=0
page id=0 file="laconic-light.png"
chars count=97
char id=0       x=122  y=21   width=10   height=16   xoffset=1    yoffset=0    xadvance=10   page=0    chnl=0 
char id=10      x=0    y=0    width=0    height=0    xoffset=-1   yoffset=0    xadvance=0    page=0    chnl=0 
char id=32      x=0    y=0    width=0    height=0    xoffset=-1   yoffset=0    xadvance=6    page=0    chnl=0 
char id=33      x=61   y=21   width=4    height=16   xoffset=1    yoffset=0    xadvance=4    page=0    chnl=0 
char id=34      x=358  y=21   width=7    height=8    xoffset=1    yoffset=-2   xadvance=7    page=0    chnl=0 
char id=35      x=173  y=21   width=10   height=14   xoffset=0    yoffset=0    xadvance=10   page=0    chnl=0 
char id=36      x=97   y=21   width=9    height=16   xoffset=0    yoffset=-2   xadvance=8    page=0    chnl=0 
char id=37      x=106  y=21   width=16   height=16   xoffset=0    yoffset=0    xadvance=15   page=0    chnl=0 
char id=38      x=64   y=0    width=14   height=18   xoffset=0    yoffset=0    xadvance=13   page=0    chnl=0 
char id=39      x=387  y=21   width=4    height=7    xoffset=1    yoffset=-1   xadvance=4    page=0    chnl=0 
char id=40      x=5    y=0    width=7    height=21   xoffset=1    yoffset=-1   xadvance=7    page=0    chnl=0 
char id=41      x=12   y=0    width=7    height=21   xoffset=0    yoffset=-1   xadvance=6    page=0    chnl=0 
char id=42      x=349  y=21   width=9    height=9    xoffset=-1   yoffset=-1   xadvance=7    page=0    chnl=0 
char id=43      x=328  y=21   width=11   height=11   xoffset=0    yoffset=3    xadvance=11   page=0    chnl=0 
char id=44      x=343  y=21   width=6    height=9    xoffset=-1   yoffset=11   xadvance=5    page=0    chnl=0 
char id=45      x=412  y=21   width=7    height=4    xoffset=0    yoffset=7    xadvance=7    page=0    chnl=0 
char id=46      x=408  y=21   width=4    height=5    xoffset=1    yoffset=11   xadvance=5    page=0    chnl=0 
char id=47      x=75   y=21   width=11   height=16   xoffset=-1   yoffset=0    xadvance=9    page=0    chnl=0 
char id=48      x=49   y=21   width=12   height=16   xoffset=0    yoffset=0    xadvance=11   page=0    chnl=0 
char id=49      x=458  y=0    width=7    height=16   xoffset=-1   yoffset=0    xadvance=6    page=0    chnl=0 
char id=50      x=465  y=0    width=11   height=16   xoffset=0    yoffset=0    xadvance=10   page=0    chnl=0 
char id=51      x=476  y=0    width=11   height=16   xoffset=0    yoffset=0    xadvance=10   page=0    chnl=0 
char id=52      x=487  y=0    width=13   height=16   xoffset=-1   yoffset=0    xadvance=11   page=0    chnl=0 
char id=53      x=500  y=0    width=10   height=16   xoffset=1    yoffset=0    xadvance=10   page=0    chnl=0 
char id=54      x=0    y=21   width=12   height=16   xoffset=0    yoffset=0    xadvance=11   page=0    chnl=0 
char id=55      x=12   y=21   width=12   height=16   xoffset=-1   yoffset=0    xadvance=10   page=0    chnl=0 
char id=56      x=24   y=21   width=13   height=16   xoffset=0    yoffset=0    xadvance=12   page=0    chnl=0 
char id=57      x=37   y=21   width=12   height=16   xoffset=0    yoffset=0    xadvance=11   page=0    chnl=0 
char id=58      x=339  y=21   width=4    height=10   xoffset=1    yoffset=4    xadvance=5    page=0    chnl=0 
char id=59      x=132  y=21   width=6    height=15   xoffset=-1   yoffset=4    xadvance=5    page=0    chnl=0 
char id=60      x=138  y=21   width=10   height=15   xoffset=-1   yoffset=1    xadvance=9    page=0    chnl=0 
char id=61      x=376  y=21   width=11   height=8    xoffset=0    yoffset=5    xadvance=11   page=0    chnl=0 
char id=62      x=148  y=21   width=10   height=15   xoffset=0    yoffset=1    xadvance=9    page=0    chnl=0 
char id=63      x=65   y=21   width=10   height=16   xoffset=0    yoffset=0    xadvance=9    page=0    chnl=0 
char id=64      x=158  y=21   width=15   height=15   xoffset=1    yoffset=2    xadvance=15   page=0    chnl=0 
char id=65      x=180  y=0    width=10   height=16   xoffset=1    yoffset=0    xadvance=10   page=0    chnl=0 
char id=66      x=190  y=0    width=11   height=16   xoffset=1    yoffset=0    xadvance=11   page=0    chnl=0 
char id=67      x=201  y=0    width=12   height=16   xoffset=0    yoffset=0    xadvance=11   page=0    chnl=0 
char id=68      x=213  y=0    width=11   height=16   xoffset=1    yoffset=0    xadvance=11   page=0    chnl=0 
char id=69      x=224  y=0    width=9    height=16   xoffset=1    yoffset=0    xadvance=10   page=0    chnl=0 
char id=70      x=233  y=0    width=9    height=16   xoffset=1    yoffset=0    xadvance=10   page=0    chnl=0 
char id=71      x=242  y=0    width=12   height=16   xoffset=0    yoffset=0    xadvance=11   page=0    chnl=0 
char id=72      x=254  y=0    width=10   height=16   xoffset=1    yoffset=0    xadvance=10   page=0    chnl=0 
char id=73      x=264  y=0    width=4    height=16   xoffset=1    yoffset=0    xadvance=4    page=0    chnl=0 
char id=74      x=268  y=0    width=8    height=16   xoffset=0    yoffset=0    xadvance=7    page=0    chnl=0 
char id=75      x=276  y=0    width=10   height=16   xoffset=1    yoffset=0    xadvance=10   page=0    chnl=0 
char id=76      x=286  y=0    width=8    height=16   xoffset=1    yoffset=0    xadvance=8    page=0    chnl=0 
char id=77      x=294  y=0    width=17   height=16   xoffset=0    yoffset=0    xadvance=17   page=0    chnl=0 
char id=78      x=311  y=0    width=11   height=16   xoffset=1    yoffset=0    xadvance=11   page=0    chnl=0 
char id=79      x=322  y=0    width=12   height=16   xoffset=0    yoffset=0    xadvance=11   page=0    chnl=0 
char id=80      x=334  y=0    width=10   height=16   xoffset=1    yoffset=0    xadvance=10   page=0    chnl=0 
char id=81      x=37   y=0    width=12   height=20   xoffset=0    yoffset=0    xadvance=11   page=0    chnl=0 
char id=82      x=344  y=0    width=11   height=16   xoffset=1    yoffset=0    xadvance=11   page=0    chnl=0 
char id=83      x=355  y=0    width=11   height=16   xoffset=0    yoffset=0    xadvance=10   page=0    chnl=0 
char id=84      x=366  y=0    width=11   height=16   xoffset=-1   yoffset=0    xadvance=9    page=0    chnl=0 
char id=85      x=377  y=0    width=10   height=16   xoffset=1    yoffset=0    xadvance=10   page=0    chnl=0 
char id=86      x=387  y=0    width=10   height=16   xoffset=1    yoffset=0    xadvance=10   page=0    chnl=0 
char id=87      x=397  y=0    width=17   height=16   xoffset=0    yoffset=0    xadvance=17   page=0    chnl=0 
char id=88      x=414  y=0    width=10   height=16   xoffset=1    yoffset=0    xadvance=10   page=0    chnl=0 
char id=89      x=424  y=0    width=11   height=16   xoffset=0    yoffset=0    xadvance=10   page=0    chnl=0 
char id=90      x=435  y=0    width=13   height=16   xoffset=-1   yoffset=0    xadvance=12   page=0    chnl=0 
char id=91      x=19   y=0    width=7    height=21   xoffset=0    yoffset=-1   xadvance=6    page=0    chnl=0 
char id=92      x=86   y=21   width=11   height=16   xoffset=-1   yoffset=0    xadvance=9    page=0    chnl=0 
char id=93      x=26   y=0    width=7    height=21   xoffset=0    yoffset=-1   xadvance=6    page=0    chnl=0 
char id=94      x=365  y=21   width=11   height=8    xoffset=-1   yoffset=0    xadvance=9    page=0    chnl=0 
char id=95      x=419  y=21   width=15   height=4    xoffset=-2   yoffset=15   xadvance=11   page=0    chnl=0 
char id=96      x=391  y=21   width=6    height=6    xoffset=0    yoffset=-1   xadvance=8    page=0    chnl=0 
char id=97      x=183  y=21   width=11   height=13   xoffset=0    yoffset=3    xadvance=10   page=0    chnl=0 
char id=98      x=78   y=0    width=10   height=17   xoffset=1    yoffset=-1   xadvance=10   page=0    chnl=0 
char id=99      x=194  y=21   width=11   height=13   xoffset=0    yoffset=3    xadvance=10   page=0    chnl=0 
char id=100     x=88   y=0    width=11   height=17   xoffset=0    yoffset=-1   xadvance=10   page=0    chnl=0 
char id=101     x=205  y=21   width=11   height=13   xoffset=0    yoffset=3    xadvance=10   page=0    chnl=0 
char id=102     x=99   y=0    width=10   height=17   xoffset=-1   yoffset=-1   xadvance=8    page=0    chnl=0 
char id=103     x=109  y=0    width=11   height=17   xoffset=0    yoffset=3    xadvance=10   page=0    chnl=0 
char id=104     x=120  y=0    width=10   height=17   xoffset=1    yoffset=-1   xadvance=10   page=0    chnl=0 
char id=105     x=130  y=0    width=4    height=17   xoffset=1    yoffset=-1   xadvance=4    page=0    chnl=0 
char id=106     x=0    y=0    width=5    height=21   xoffset=-1   yoffset=-1   xadvance=3    page=0    chnl=0 
char id=107     x=134  y=0    width=10   height=17   xoffset=1    yoffset=-1   xadvance=10   page=0    chnl=0 
char id=108     x=144  y=0    width=4    height=17   xoffset=1    yoffset=-1   xadvance=4    page=0    chnl=0 
char id=109     x=216  y=21   width=15   height=13   xoffset=1    yoffset=3    xadvance=15   page=0    chnl=0 
char id=110     x=231  y=21   width=10   height=13   xoffset=1    yoffset=3    xadvance=10   page=0    chnl=0 
char id=111     x=241  y=21   width=11   height=13   xoffset=0    yoffset=3    xadvance=10   page=0    chnl=0 
char id=112     x=148  y=0    width=10   height=17   xoffset=1    yoffset=3    xadvance=10   page=0    chnl=0 
char id=113     x=158  y=0    width=11   height=17   xoffset=0    yoffset=3    xadvance=10   page=0    chnl=0 
char id=114     x=252  y=21   width=9    height=13   xoffset=1    yoffset=3    xadvance=9    page=0    chnl=0 
char id=115     x=261  y=21   width=10   height=13   xoffset=0    yoffset=3    xadvance=9    page=0    chnl=0 
char id=116     x=448  y=0    width=10   height=16   xoffset=0    yoffset=0    xadvance=9    page=0    chnl=0 
char id=117     x=271  y=21   width=10   height=13   xoffset=1    yoffset=3    xadvance=10   page=0    chnl=0 
char id=118     x=281  y=21   width=10   height=13   xoffset=1    yoffset=3    xadvance=10   page=0    chnl=0 
char id=119     x=291  y=21   width=15   height=13   xoffset=1    yoffset=3    xadvance=15   page=0    chnl=0 
char id=120     x=306  y=21   width=10   height=13   xoffset=1    yoffset=3    xadvance=10   page=0    chnl=0 
char id=121     x=169  y=0    width=11   height=17   xoffset=0    yoffset=3    xadvance=10   page=0    chnl=0 
char id=122     x=316  y=21   width=12   height=13   xoffset=-1   yoffset=3    xadvance=10   page=0    chnl=0 
char id=123     x=49   y=0    width=8    height=20   xoffset=-1   yoffset=0    xadvance=6    page=0    chnl=0 
char id=124     x=33   y=0    width=4    height=21   xoffset=1    yoffset=-1   xadvance=5    page=0    chnl=0 
char id=125     x=57   y=0    width=7    height=20   xoffset=0    yoffset=0    xadvance=6    page=0    chnl=0 
char id=126     x=397  y=21   width=11   height=6    xoffset=0    yoffset=5    xadvance=10   page=0    chnl=0 
kernings count=20
kerning first=70 second=46 amount=-2
kerning first=56 second=57 amount=-1
kerning first=56 second=55 amount=-1
kerning first=80 second=46 amount=-2
kerning first=50 second=52 amount=-1
kerning first=32 second=84 amount=-1
kerning first=84 second=32 amount=-1
kerning first=55 second=54 amount=-1
kerning first=84 second=46 amount=-2
kerning first=108 second=108 amount=1
kerning first=80 second=44 amount=-2
kerning first=105 second=105 amount=1
kerning first=89 second=44 amount=-2
kerning first=70 second=44 amount=-2
kerning first=84 second=44 amount=-2
kerning first=55 second=56 amount=-1
kerning first=52 second=55 amount=-1
kerning first=51 second=55 amount=-1
kerning first=89 second=46 amount=-2
kerning first=55 second=52 amount=-2
